…
- Wordclouds - to visualize the repetitions within our qualitative data

- Maps - to compare results between US states

- Waffle plot - comparing `ideal_support` with `critical_support`

Preliminary exploratory data analysis:

``` r
Postpartum_renamed_variables_US |>
  count(informed_by) |>
  arrange(desc(n))
```

    ## # A tibble: 45 × 2
    ##    informed_by                                n
    ##    <chr>                                  <int>
    ##  1 No                                       448
    ##  2 Yes                                      292
    ##  3 Some information                           2
    ##  4 Apart from the follow up at 6 weeks no     1
    ##  5 As defined by?                             1
    ##  6 Baby 1/2 MDs-no, baby 3 midwife, yes       1
    ##  7 Breastfeeding groups                       1
    ##  8 CO- no. IA- yes.                           1
    ##  9 Don’t recall but I don’t think so          1
    ## 10 Don’t remember                             1
    ## # ℹ 35 more rows
…
String example

``` r
Postpartum_renamed_variables_US |>
  mutate(state = str_replace(state, "DC", "District of Columbia")) 
```

    ## # A tibble: 784 × 15
    ##    respondent          state   age birth_location informed_by other_info_sources
    ##    <dttm>              <chr> <dbl> <chr>          <chr>       <chr>             
    ##  1 2023-02-05 23:57:39 Cali…    30 At home        Yes         Birth education p…
    ##  2 2023-02-06 09:57:13 Penn…    26 Hospital, Was… No          Social media      
    ##  3 2023-02-06 11:54:12 Mich…    21 At home        No          Social media      
    ##  4 2023-02-06 21:04:15 Mass…    NA Hospital       Yes         Birth education p…
    ##  5 2023-02-06 21:19:43 Dist…    36 Hospital       No          Birth education p…
    ##  6 2023-02-06 21:20:00 Mary…    NA Hospital       Yes         Family members or…
    ##  7 2023-02-06 21:20:05 Sout…    NA Hospital       No          Birth education p…
    ##  8 2023-02-06 21:27:11 Maine    28 At home        No          Books             
    ##  9 2023-02-06 21:34:54 Arka…    42 Hospital       Yes         Family members or…
    ## 10 2023-02-06 21:41:49 Mass…    33 Hospital       No          Family members or…
    ## # ℹ 774 more rows
    ## # ℹ 9 more variables: support_type <chr>, provider <chr>,
    ## #   ins_covered_services <chr>, cost_factor <chr>, if_insurance <chr>,
    ## #   critical_support <chr>, ideal_support <chr>, comments <chr>, emails <chr>
…
